solid OpenSCAD_Model
  facet normal -1 0 0
    outer loop
      vertex 9.15527e-07 -21.335 0
      vertex 9.15527e-07 21.335 5
      vertex 9.15527e-07 21.335 0
    endloop
  endfacet
  facet normal -1 -0 0
    outer loop
      vertex 9.15527e-07 21.335 5
      vertex 9.15527e-07 -21.335 0
      vertex 9.15527e-07 -21.335 5
    endloop
  endfacet
  facet normal 0 0 1
    outer loop
      vertex 3.74401 14.409 5
      vertex 9.59723 2.49494 5
      vertex 5.335 13.75 5
    endloop
  endfacet
  facet normal 0 0 1
    outer loop
      vertex 9.335 0 5
      vertex 6.92599 -14.409 5
      vertex 7.585 -16 5
    endloop
  endfacet
  facet normal 0 0 1
    outer loop
      vertex 9.59723 2.49494 5
      vertex 3.74401 14.409 5
      vertex 9.335 0 5
    endloop
  endfacet
  facet normal 0 0 1
    outer loop
      vertex 9.335 0 5
      vertex 5.335 -13.75 5
      vertex 6.92599 -14.409 5
    endloop
  endfacet
  facet normal 0 0 1
    outer loop
      vertex 3.74401 -14.409 5
      vertex 9.335 0 5
      vertex 3.74401 14.409 5
    endloop
  endfacet
  facet normal 0 0 1
    outer loop
      vertex 9.335 0 5
      vertex 3.74401 -14.409 5
      vertex 5.335 -13.75 5
    endloop
  endfacet
  facet normal 0 0 1
    outer loop
      vertex 9.15527e-07 21.335 5
      vertex 3.74401 14.409 5
      vertex 3.085 16 5
    endloop
  endfacet
  facet normal 0 0 1
    outer loop
      vertex 3.74401 14.409 5
      vertex 9.15527e-07 21.335 5
      vertex 3.74401 -14.409 5
    endloop
  endfacet
  facet normal -0 0 1
    outer loop
      vertex 38.926 -14.409 5
      vertex 42.67 -21.335 5
      vertex 38.926 14.409 5
    endloop
  endfacet
  facet normal 0 0 1
    outer loop
      vertex 42.67 -21.335 5
      vertex 38.926 -14.409 5
      vertex 39.585 -16 5
    endloop
  endfacet
  facet normal 0 0 1
    outer loop
      vertex 33.0728 2.49494 5
      vertex 38.926 14.409 5
      vertex 37.335 13.75 5
    endloop
  endfacet
  facet normal 0 0 1
    outer loop
      vertex 38.926 14.409 5
      vertex 33.335 0 5
      vertex 38.926 -14.409 5
    endloop
  endfacet
  facet normal 0 0 1
    outer loop
      vertex 31.0432 7.05342 5
      vertex 37.335 13.75 5
      vertex 35.744 14.409 5
    endloop
  endfacet
  facet normal -0 0 1
    outer loop
      vertex 33.0728 -2.49494 5
      vertex 38.926 -14.409 5
      vertex 33.335 0 5
    endloop
  endfacet
  facet normal 0 0 1
    outer loop
      vertex 29.3646 8.91774 5
      vertex 35.744 14.409 5
      vertex 35.085 16 5
    endloop
  endfacet
  facet normal 0 0 1
    outer loop
      vertex 38.926 -14.409 5
      vertex 33.0728 -2.49494 5
      vertex 37.335 -13.75 5
    endloop
  endfacet
  facet normal 0 0 1
    outer loop
      vertex 38.926 14.409 5
      vertex 42.67 21.335 5
      vertex 39.585 16 5
    endloop
  endfacet
  facet normal 0 0 1
    outer loop
      vertex 42.67 21.335 5
      vertex 38.926 17.591 5
      vertex 39.585 16 5
    endloop
  endfacet
  facet normal 0 0 1
    outer loop
      vertex 42.67 21.335 5
      vertex 37.335 18.25 5
      vertex 38.926 17.591 5
    endloop
  endfacet
  facet normal 0 0 1
    outer loop
      vertex 42.67 21.335 5
      vertex 35.744 17.591 5
      vertex 37.335 18.25 5
    endloop
  endfacet
  facet normal -0 0 1
    outer loop
      vertex 32.2975 -4.88084 5
      vertex 37.335 -13.75 5
      vertex 33.0728 -2.49494 5
    endloop
  endfacet
  facet normal 0 0 1
    outer loop
      vertex 38.926 14.409 5
      vertex 33.0728 2.49494 5
      vertex 33.335 0 5
    endloop
  endfacet
  facet normal 0 0 1
    outer loop
      vertex 37.335 13.75 5
      vertex 32.2975 4.88084 5
      vertex 33.0728 2.49494 5
    endloop
  endfacet
  facet normal 0 0 1
    outer loop
      vertex 37.335 13.75 5
      vertex 31.0432 7.05342 5
      vertex 32.2975 4.88084 5
    endloop
  endfacet
  facet normal 0 0 1
    outer loop
      vertex 25.0432 11.4127 5
      vertex 35.085 16 5
      vertex 35.744 17.591 5
    endloop
  endfacet
  facet normal 0 0 1
    outer loop
      vertex 35.744 14.409 5
      vertex 29.3646 8.91774 5
      vertex 31.0432 7.05342 5
    endloop
  endfacet
  facet normal 0 0 1
    outer loop
      vertex 35.085 16 5
      vertex 27.335 10.3923 5
      vertex 29.3646 8.91774 5
    endloop
  endfacet
  facet normal 0 0 1
    outer loop
      vertex 35.085 16 5
      vertex 25.0432 11.4127 5
      vertex 27.335 10.3923 5
    endloop
  endfacet
  facet normal 0 0 1
    outer loop
      vertex 35.744 17.591 5
      vertex 22.5893 11.9343 5
      vertex 25.0432 11.4127 5
    endloop
  endfacet
  facet normal 0 0 1
    outer loop
      vertex 6.92599 17.591 5
      vertex 35.744 17.591 5
      vertex 42.67 21.335 5
    endloop
  endfacet
  facet normal 0 0 1
    outer loop
      vertex 35.744 17.591 5
      vertex 6.92599 17.591 5
      vertex 22.5893 11.9343 5
    endloop
  endfacet
  facet normal 0 0 1
    outer loop
      vertex 22.5893 11.9343 5
      vertex 6.92599 17.591 5
      vertex 20.0807 11.9343 5
    endloop
  endfacet
  facet normal 0 0 1
    outer loop
      vertex 11.6268 7.05342 5
      vertex 5.335 13.75 5
      vertex 10.3725 4.88084 5
    endloop
  endfacet
  facet normal -0 0 1
    outer loop
      vertex 5.335 13.75 5
      vertex 11.6268 7.05342 5
      vertex 6.92599 14.409 5
    endloop
  endfacet
  facet normal 0 0 1
    outer loop
      vertex 13.3054 8.91774 5
      vertex 6.92599 14.409 5
      vertex 11.6268 7.05342 5
    endloop
  endfacet
  facet normal -0 0 1
    outer loop
      vertex 6.92599 14.409 5
      vertex 13.3054 8.91774 5
      vertex 7.585 16 5
    endloop
  endfacet
  facet normal 0 0 1
    outer loop
      vertex 15.335 10.3923 5
      vertex 7.585 16 5
      vertex 13.3054 8.91774 5
    endloop
  endfacet
  facet normal 0 0 1
    outer loop
      vertex 17.6268 11.4127 5
      vertex 7.585 16 5
      vertex 15.335 10.3923 5
    endloop
  endfacet
  facet normal 0 0 1
    outer loop
      vertex 20.0807 11.9343 5
      vertex 6.92599 17.591 5
      vertex 17.6268 11.4127 5
    endloop
  endfacet
  facet normal 0 0 1
    outer loop
      vertex 17.6268 11.4127 5
      vertex 6.92599 17.591 5
      vertex 7.585 16 5
    endloop
  endfacet
  facet normal -0 0 1
    outer loop
      vertex 9.15527e-07 21.335 5
      vertex 6.92599 17.591 5
      vertex 42.67 21.335 5
    endloop
  endfacet
  facet normal 0 0 1
    outer loop
      vertex 9.15527e-07 -21.335 5
      vertex 3.74401 -14.409 5
      vertex 9.15527e-07 21.335 5
    endloop
  endfacet
  facet normal 0 0 1
    outer loop
      vertex 3.74401 17.591 5
      vertex 9.15527e-07 21.335 5
      vertex 3.085 16 5
    endloop
  endfacet
  facet normal 0 0 1
    outer loop
      vertex 5.335 18.25 5
      vertex 9.15527e-07 21.335 5
      vertex 3.74401 17.591 5
    endloop
  endfacet
  facet normal 0 0 1
    outer loop
      vertex 6.92599 17.591 5
      vertex 9.15527e-07 21.335 5
      vertex 5.335 18.25 5
    endloop
  endfacet
  facet normal 0 0 1
    outer loop
      vertex 42.67 21.335 5
      vertex 38.926 14.409 5
      vertex 42.67 -21.335 5
    endloop
  endfacet
  facet normal -0 0 1
    outer loop
      vertex 38.926 -17.591 5
      vertex 42.67 -21.335 5
      vertex 39.585 -16 5
    endloop
  endfacet
  facet normal -0 0 1
    outer loop
      vertex 37.335 -18.25 5
      vertex 42.67 -21.335 5
      vertex 38.926 -17.591 5
    endloop
  endfacet
  facet normal 0 0 1
    outer loop
      vertex 35.744 -17.591 5
      vertex 42.67 -21.335 5
      vertex 37.335 -18.25 5
    endloop
  endfacet
  facet normal -0 0 1
    outer loop
      vertex 31.0432 -7.05342 5
      vertex 37.335 -13.75 5
      vertex 32.2975 -4.88084 5
    endloop
  endfacet
  facet normal 0 0 1
    outer loop
      vertex 37.335 -13.75 5
      vertex 31.0432 -7.05342 5
      vertex 35.744 -14.409 5
    endloop
  endfacet
  facet normal -0 0 1
    outer loop
      vertex 29.3646 -8.91774 5
      vertex 35.744 -14.409 5
      vertex 31.0432 -7.05342 5
    endloop
  endfacet
  facet normal 0 0 1
    outer loop
      vertex 35.744 -14.409 5
      vertex 29.3646 -8.91774 5
      vertex 35.085 -16 5
    endloop
  endfacet
  facet normal -0 0 1
    outer loop
      vertex 27.335 -10.3923 5
      vertex 35.085 -16 5
      vertex 29.3646 -8.91774 5
    endloop
  endfacet
  facet normal -0 0 1
    outer loop
      vertex 25.0432 -11.4127 5
      vertex 35.085 -16 5
      vertex 27.335 -10.3923 5
    endloop
  endfacet
  facet normal 0 0 1
    outer loop
      vertex 35.085 -16 5
      vertex 25.0432 -11.4127 5
      vertex 35.744 -17.591 5
    endloop
  endfacet
  facet normal -0 0 1
    outer loop
      vertex 22.5893 -11.9343 5
      vertex 35.744 -17.591 5
      vertex 25.0432 -11.4127 5
    endloop
  endfacet
  facet normal 0 0 1
    outer loop
      vertex 6.92599 -17.591 5
      vertex 35.744 -17.591 5
      vertex 22.5893 -11.9343 5
    endloop
  endfacet
  facet normal 0 0 1
    outer loop
      vertex 6.92599 -17.591 5
      vertex 22.5893 -11.9343 5
      vertex 20.0807 -11.9343 5
    endloop
  endfacet
  facet normal 0 0 1
    outer loop
      vertex 6.92599 -17.591 5
      vertex 20.0807 -11.9343 5
      vertex 17.6268 -11.4127 5
    endloop
  endfacet
  facet normal 0 0 1
    outer loop
      vertex 10.3725 4.88084 5
      vertex 5.335 13.75 5
      vertex 9.59723 2.49494 5
    endloop
  endfacet
  facet normal 0 0 1
    outer loop
      vertex 9.335 0 5
      vertex 7.585 -16 5
      vertex 9.59723 -2.49494 5
    endloop
  endfacet
  facet normal 0 0 1
    outer loop
      vertex 7.585 -16 5
      vertex 10.3725 -4.88084 5
      vertex 9.59723 -2.49494 5
    endloop
  endfacet
  facet normal 0 0 1
    outer loop
      vertex 7.585 -16 5
      vertex 11.6268 -7.05342 5
      vertex 10.3725 -4.88084 5
    endloop
  endfacet
  facet normal 0 0 1
    outer loop
      vertex 7.585 -16 5
      vertex 13.3054 -8.91774 5
      vertex 11.6268 -7.05342 5
    endloop
  endfacet
  facet normal 0 0 1
    outer loop
      vertex 7.585 -16 5
      vertex 15.335 -10.3923 5
      vertex 13.3054 -8.91774 5
    endloop
  endfacet
  facet normal 0 0 1
    outer loop
      vertex 7.585 -16 5
      vertex 17.6268 -11.4127 5
      vertex 15.335 -10.3923 5
    endloop
  endfacet
  facet normal 0 0 1
    outer loop
      vertex 6.92599 -17.591 5
      vertex 17.6268 -11.4127 5
      vertex 7.585 -16 5
    endloop
  endfacet
  facet normal 0 0 1
    outer loop
      vertex 35.744 -17.591 5
      vertex 6.92599 -17.591 5
      vertex 42.67 -21.335 5
    endloop
  endfacet
  facet normal 0 0 1
    outer loop
      vertex 9.15527e-07 -21.335 5
      vertex 6.92599 -17.591 5
      vertex 5.335 -18.25 5
    endloop
  endfacet
  facet normal 0 0 1
    outer loop
      vertex 6.92599 -17.591 5
      vertex 9.15527e-07 -21.335 5
      vertex 42.67 -21.335 5
    endloop
  endfacet
  facet normal 0 0 1
    outer loop
      vertex 3.74401 -17.591 5
      vertex 9.15527e-07 -21.335 5
      vertex 5.335 -18.25 5
    endloop
  endfacet
  facet normal 0 0 1
    outer loop
      vertex 3.085 -16 5
      vertex 9.15527e-07 -21.335 5
      vertex 3.74401 -17.591 5
    endloop
  endfacet
  facet normal 0 0 1
    outer loop
      vertex 3.74401 -14.409 5
      vertex 9.15527e-07 -21.335 5
      vertex 3.085 -16 5
    endloop
  endfacet
  facet normal 1 -0 0
    outer loop
      vertex 42.67 -21.335 5
      vertex 42.67 21.335 0
      vertex 42.67 21.335 5
    endloop
  endfacet
  facet normal 1 0 0
    outer loop
      vertex 42.67 21.335 0
      vertex 42.67 -21.335 5
      vertex 42.67 -21.335 0
    endloop
  endfacet
  facet normal 0 1 -0
    outer loop
      vertex 42.67 21.335 0
      vertex 9.15527e-07 21.335 5
      vertex 42.67 21.335 5
    endloop
  endfacet
  facet normal 0 1 0
    outer loop
      vertex 9.15527e-07 21.335 5
      vertex 42.67 21.335 0
      vertex 9.15527e-07 21.335 0
    endloop
  endfacet
  facet normal 0 0 -1
    outer loop
      vertex 3.74401 -14.409 0
      vertex 9.59723 -2.49494 0
      vertex 5.335 -13.75 0
    endloop
  endfacet
  facet normal 0 0 -1
    outer loop
      vertex 9.335 0 0
      vertex 6.92599 14.409 0
      vertex 7.585 16 0
    endloop
  endfacet
  facet normal -0 0 -1
    outer loop
      vertex 9.59723 -2.49494 0
      vertex 3.74401 -14.409 0
      vertex 9.335 0 0
    endloop
  endfacet
  facet normal 0 0 -1
    outer loop
      vertex 9.335 0 0
      vertex 5.335 13.75 0
      vertex 6.92599 14.409 0
    endloop
  endfacet
  facet normal 0 0 -1
    outer loop
      vertex 3.74401 14.409 0
      vertex 9.335 0 0
      vertex 3.74401 -14.409 0
    endloop
  endfacet
  facet normal 0 0 -1
    outer loop
      vertex 9.335 0 0
      vertex 3.74401 14.409 0
      vertex 5.335 13.75 0
    endloop
  endfacet
  facet normal 0 0 -1
    outer loop
      vertex 9.15527e-07 -21.335 0
      vertex 3.74401 -14.409 0
      vertex 3.085 -16 0
    endloop
  endfacet
  facet normal -0 0 -1
    outer loop
      vertex 3.74401 -14.409 0
      vertex 9.15527e-07 -21.335 0
      vertex 3.74401 14.409 0
    endloop
  endfacet
  facet normal 0 0 -1
    outer loop
      vertex 38.926 14.409 0
      vertex 42.67 21.335 0
      vertex 38.926 -14.409 0
    endloop
  endfacet
  facet normal 0 0 -1
    outer loop
      vertex 42.67 21.335 0
      vertex 38.926 14.409 0
      vertex 39.585 16 0
    endloop
  endfacet
  facet normal 0 0 -1
    outer loop
      vertex 33.0728 -2.49494 0
      vertex 38.926 -14.409 0
      vertex 37.335 -13.75 0
    endloop
  endfacet
  facet normal 0 0 -1
    outer loop
      vertex 38.926 -14.409 0
      vertex 33.335 0 0
      vertex 38.926 14.409 0
    endloop
  endfacet
  facet normal 0 0 -1
    outer loop
      vertex 31.0432 -7.05342 0
      vertex 37.335 -13.75 0
      vertex 35.744 -14.409 0
    endloop
  endfacet
  facet normal 0 0 -1
    outer loop
      vertex 33.0728 2.49494 0
      vertex 38.926 14.409 0
      vertex 33.335 0 0
    endloop
  endfacet
  facet normal 0 0 -1
    outer loop
      vertex 29.3646 -8.91774 0
      vertex 35.744 -14.409 0
      vertex 35.085 -16 0
    endloop
  endfacet
  facet normal 0 0 -1
    outer loop
      vertex 38.926 14.409 0
      vertex 33.0728 2.49494 0
      vertex 37.335 13.75 0
    endloop
  endfacet
  facet normal 0 0 -1
    outer loop
      vertex 38.926 -14.409 0
      vertex 42.67 -21.335 0
      vertex 39.585 -16 0
    endloop
  endfacet
  facet normal 0 0 -1
    outer loop
      vertex 42.67 -21.335 0
      vertex 38.926 -17.591 0
      vertex 39.585 -16 0
    endloop
  endfacet
  facet normal 0 0 -1
    outer loop
      vertex 42.67 -21.335 0
      vertex 37.335 -18.25 0
      vertex 38.926 -17.591 0
    endloop
  endfacet
  facet normal 0 0 -1
    outer loop
      vertex 42.67 -21.335 0
      vertex 35.744 -17.591 0
      vertex 37.335 -18.25 0
    endloop
  endfacet
  facet normal 0 0 -1
    outer loop
      vertex 32.2975 4.88084 0
      vertex 37.335 13.75 0
      vertex 33.0728 2.49494 0
    endloop
  endfacet
  facet normal 0 0 -1
    outer loop
      vertex 38.926 -14.409 0
      vertex 33.0728 -2.49494 0
      vertex 33.335 0 0
    endloop
  endfacet
  facet normal 0 0 -1
    outer loop
      vertex 37.335 -13.75 0
      vertex 32.2975 -4.88084 0
      vertex 33.0728 -2.49494 0
    endloop
  endfacet
  facet normal 0 0 -1
    outer loop
      vertex 37.335 -13.75 0
      vertex 31.0432 -7.05342 0
      vertex 32.2975 -4.88084 0
    endloop
  endfacet
  facet normal 0 0 -1
    outer loop
      vertex 25.0432 -11.4127 0
      vertex 35.085 -16 0
      vertex 35.744 -17.591 0
    endloop
  endfacet
  facet normal 0 0 -1
    outer loop
      vertex 35.744 -14.409 0
      vertex 29.3646 -8.91774 0
      vertex 31.0432 -7.05342 0
    endloop
  endfacet
  facet normal 0 0 -1
    outer loop
      vertex 35.085 -16 0
      vertex 27.335 -10.3923 0
      vertex 29.3646 -8.91774 0
    endloop
  endfacet
  facet normal 0 0 -1
    outer loop
      vertex 35.085 -16 0
      vertex 25.0432 -11.4127 0
      vertex 27.335 -10.3923 0
    endloop
  endfacet
  facet normal 0 0 -1
    outer loop
      vertex 35.744 -17.591 0
      vertex 22.5893 -11.9343 0
      vertex 25.0432 -11.4127 0
    endloop
  endfacet
  facet normal 0 0 -1
    outer loop
      vertex 6.92599 -17.591 0
      vertex 35.744 -17.591 0
      vertex 42.67 -21.335 0
    endloop
  endfacet
  facet normal 0 0 -1
    outer loop
      vertex 35.744 -17.591 0
      vertex 6.92599 -17.591 0
      vertex 22.5893 -11.9343 0
    endloop
  endfacet
  facet normal -0 0 -1
    outer loop
      vertex 22.5893 -11.9343 0
      vertex 6.92599 -17.591 0
      vertex 20.0807 -11.9343 0
    endloop
  endfacet
  facet normal -0 0 -1
    outer loop
      vertex 11.6268 -7.05342 0
      vertex 5.335 -13.75 0
      vertex 10.3725 -4.88084 0
    endloop
  endfacet
  facet normal 0 0 -1
    outer loop
      vertex 5.335 -13.75 0
      vertex 11.6268 -7.05342 0
      vertex 6.92599 -14.409 0
    endloop
  endfacet
  facet normal -0 0 -1
    outer loop
      vertex 13.3054 -8.91774 0
      vertex 6.92599 -14.409 0
      vertex 11.6268 -7.05342 0
    endloop
  endfacet
  facet normal 0 0 -1
    outer loop
      vertex 6.92599 -14.409 0
      vertex 13.3054 -8.91774 0
      vertex 7.585 -16 0
    endloop
  endfacet
  facet normal -0 0 -1
    outer loop
      vertex 15.335 -10.3923 0
      vertex 7.585 -16 0
      vertex 13.3054 -8.91774 0
    endloop
  endfacet
  facet normal -0 0 -1
    outer loop
      vertex 17.6268 -11.4127 0
      vertex 7.585 -16 0
      vertex 15.335 -10.3923 0
    endloop
  endfacet
  facet normal -0 0 -1
    outer loop
      vertex 20.0807 -11.9343 0
      vertex 6.92599 -17.591 0
      vertex 17.6268 -11.4127 0
    endloop
  endfacet
  facet normal 0 0 -1
    outer loop
      vertex 17.6268 -11.4127 0
      vertex 6.92599 -17.591 0
      vertex 7.585 -16 0
    endloop
  endfacet
  facet normal 0 0 -1
    outer loop
      vertex 9.15527e-07 -21.335 0
      vertex 6.92599 -17.591 0
      vertex 42.67 -21.335 0
    endloop
  endfacet
  facet normal 0 0 -1
    outer loop
      vertex 9.15527e-07 21.335 0
      vertex 3.74401 14.409 0
      vertex 9.15527e-07 -21.335 0
    endloop
  endfacet
  facet normal -0 0 -1
    outer loop
      vertex 3.74401 -17.591 0
      vertex 9.15527e-07 -21.335 0
      vertex 3.085 -16 0
    endloop
  endfacet
  facet normal -0 0 -1
    outer loop
      vertex 5.335 -18.25 0
      vertex 9.15527e-07 -21.335 0
      vertex 3.74401 -17.591 0
    endloop
  endfacet
  facet normal 0 0 -1
    outer loop
      vertex 6.92599 -17.591 0
      vertex 9.15527e-07 -21.335 0
      vertex 5.335 -18.25 0
    endloop
  endfacet
  facet normal 0 0 -1
    outer loop
      vertex 42.67 -21.335 0
      vertex 38.926 -14.409 0
      vertex 42.67 21.335 0
    endloop
  endfacet
  facet normal 0 0 -1
    outer loop
      vertex 38.926 17.591 0
      vertex 42.67 21.335 0
      vertex 39.585 16 0
    endloop
  endfacet
  facet normal 0 0 -1
    outer loop
      vertex 37.335 18.25 0
      vertex 42.67 21.335 0
      vertex 38.926 17.591 0
    endloop
  endfacet
  facet normal 0 0 -1
    outer loop
      vertex 35.744 17.591 0
      vertex 42.67 21.335 0
      vertex 37.335 18.25 0
    endloop
  endfacet
  facet normal 0 0 -1
    outer loop
      vertex 31.0432 7.05342 0
      vertex 37.335 13.75 0
      vertex 32.2975 4.88084 0
    endloop
  endfacet
  facet normal -0 0 -1
    outer loop
      vertex 37.335 13.75 0
      vertex 31.0432 7.05342 0
      vertex 35.744 14.409 0
    endloop
  endfacet
  facet normal 0 0 -1
    outer loop
      vertex 29.3646 8.91774 0
      vertex 35.744 14.409 0
      vertex 31.0432 7.05342 0
    endloop
  endfacet
  facet normal -0 0 -1
    outer loop
      vertex 35.744 14.409 0
      vertex 29.3646 8.91774 0
      vertex 35.085 16 0
    endloop
  endfacet
  facet normal 0 0 -1
    outer loop
      vertex 27.335 10.3923 0
      vertex 35.085 16 0
      vertex 29.3646 8.91774 0
    endloop
  endfacet
  facet normal 0 0 -1
    outer loop
      vertex 25.0432 11.4127 0
      vertex 35.085 16 0
      vertex 27.335 10.3923 0
    endloop
  endfacet
  facet normal -0 0 -1
    outer loop
      vertex 35.085 16 0
      vertex 25.0432 11.4127 0
      vertex 35.744 17.591 0
    endloop
  endfacet
  facet normal 0 0 -1
    outer loop
      vertex 22.5893 11.9343 0
      vertex 35.744 17.591 0
      vertex 25.0432 11.4127 0
    endloop
  endfacet
  facet normal 0 0 -1
    outer loop
      vertex 6.92599 17.591 0
      vertex 35.744 17.591 0
      vertex 22.5893 11.9343 0
    endloop
  endfacet
  facet normal 0 0 -1
    outer loop
      vertex 6.92599 17.591 0
      vertex 22.5893 11.9343 0
      vertex 20.0807 11.9343 0
    endloop
  endfacet
  facet normal 0 0 -1
    outer loop
      vertex 6.92599 17.591 0
      vertex 20.0807 11.9343 0
      vertex 17.6268 11.4127 0
    endloop
  endfacet
  facet normal -0 0 -1
    outer loop
      vertex 10.3725 -4.88084 0
      vertex 5.335 -13.75 0
      vertex 9.59723 -2.49494 0
    endloop
  endfacet
  facet normal 0 0 -1
    outer loop
      vertex 9.335 0 0
      vertex 7.585 16 0
      vertex 9.59723 2.49494 0
    endloop
  endfacet
  facet normal 0 0 -1
    outer loop
      vertex 7.585 16 0
      vertex 10.3725 4.88084 0
      vertex 9.59723 2.49494 0
    endloop
  endfacet
  facet normal 0 0 -1
    outer loop
      vertex 7.585 16 0
      vertex 11.6268 7.05342 0
      vertex 10.3725 4.88084 0
    endloop
  endfacet
  facet normal 0 0 -1
    outer loop
      vertex 7.585 16 0
      vertex 13.3054 8.91774 0
      vertex 11.6268 7.05342 0
    endloop
  endfacet
  facet normal 0 0 -1
    outer loop
      vertex 7.585 16 0
      vertex 15.335 10.3923 0
      vertex 13.3054 8.91774 0
    endloop
  endfacet
  facet normal 0 0 -1
    outer loop
      vertex 7.585 16 0
      vertex 17.6268 11.4127 0
      vertex 15.335 10.3923 0
    endloop
  endfacet
  facet normal 0 0 -1
    outer loop
      vertex 6.92599 17.591 0
      vertex 17.6268 11.4127 0
      vertex 7.585 16 0
    endloop
  endfacet
  facet normal 0 0 -1
    outer loop
      vertex 35.744 17.591 0
      vertex 6.92599 17.591 0
      vertex 42.67 21.335 0
    endloop
  endfacet
  facet normal 0 0 -1
    outer loop
      vertex 9.15527e-07 21.335 0
      vertex 6.92599 17.591 0
      vertex 5.335 18.25 0
    endloop
  endfacet
  facet normal 0 0 -1
    outer loop
      vertex 6.92599 17.591 0
      vertex 9.15527e-07 21.335 0
      vertex 42.67 21.335 0
    endloop
  endfacet
  facet normal 0 0 -1
    outer loop
      vertex 3.74401 17.591 0
      vertex 9.15527e-07 21.335 0
      vertex 5.335 18.25 0
    endloop
  endfacet
  facet normal 0 0 -1
    outer loop
      vertex 3.085 16 0
      vertex 9.15527e-07 21.335 0
      vertex 3.74401 17.591 0
    endloop
  endfacet
  facet normal 0 0 -1
    outer loop
      vertex 3.74401 14.409 0
      vertex 9.15527e-07 21.335 0
      vertex 3.085 16 0
    endloop
  endfacet
  facet normal 0 -1 0
    outer loop
      vertex 9.15527e-07 -21.335 0
      vertex 42.67 -21.335 5
      vertex 9.15527e-07 -21.335 5
    endloop
  endfacet
  facet normal 0 -1 -0
    outer loop
      vertex 42.67 -21.335 5
      vertex 9.15527e-07 -21.335 0
      vertex 42.67 -21.335 0
    endloop
  endfacet
  facet normal -0.866025 -0.5 0
    outer loop
      vertex 32.2975 4.88084 0
      vertex 31.0432 7.05342 5
      vertex 31.0432 7.05342 0
    endloop
  endfacet
  facet normal -0.866025 -0.5 0
    outer loop
      vertex 31.0432 7.05342 5
      vertex 32.2975 4.88084 0
      vertex 32.2975 4.88084 5
    endloop
  endfacet
  facet normal -0.743145 -0.669131 0
    outer loop
      vertex 31.0432 7.05342 0
      vertex 29.3646 8.91774 5
      vertex 29.3646 8.91774 0
    endloop
  endfacet
  facet normal -0.743145 -0.669131 0
    outer loop
      vertex 29.3646 8.91774 5
      vertex 31.0432 7.05342 0
      vertex 31.0432 7.05342 5
    endloop
  endfacet
  facet normal 0.406737 -0.913545 0
    outer loop
      vertex 15.335 10.3923 0
      vertex 17.6268 11.4127 5
      vertex 15.335 10.3923 5
    endloop
  endfacet
  facet normal 0.406737 -0.913545 0
    outer loop
      vertex 17.6268 11.4127 5
      vertex 15.335 10.3923 0
      vertex 17.6268 11.4127 0
    endloop
  endfacet
  facet normal -0.994522 0.104529 0
    outer loop
      vertex 33.0728 -2.49494 0
      vertex 33.335 0 5
      vertex 33.335 0 0
    endloop
  endfacet
  facet normal -0.994522 0.104529 0
    outer loop
      vertex 33.335 0 5
      vertex 33.0728 -2.49494 0
      vertex 33.0728 -2.49494 5
    endloop
  endfacet
  facet normal -0.951057 -0.309016 0
    outer loop
      vertex 33.0728 2.49494 0
      vertex 32.2975 4.88084 5
      vertex 32.2975 4.88084 0
    endloop
  endfacet
  facet normal -0.951057 -0.309016 0
    outer loop
      vertex 32.2975 4.88084 5
      vertex 33.0728 2.49494 0
      vertex 33.0728 2.49494 5
    endloop
  endfacet
  facet normal -0.587785 -0.809017 0
    outer loop
      vertex 27.335 10.3923 0
      vertex 29.3646 8.91774 5
      vertex 27.335 10.3923 5
    endloop
  endfacet
  facet normal -0.587785 -0.809017 -0
    outer loop
      vertex 29.3646 8.91774 5
      vertex 27.335 10.3923 0
      vertex 29.3646 8.91774 0
    endloop
  endfacet
  facet normal 0 -1 0
    outer loop
      vertex 20.0807 11.9343 0
      vertex 22.5893 11.9343 5
      vertex 20.0807 11.9343 5
    endloop
  endfacet
  facet normal 0 -1 -0
    outer loop
      vertex 22.5893 11.9343 5
      vertex 20.0807 11.9343 0
      vertex 22.5893 11.9343 0
    endloop
  endfacet
  facet normal -0.406737 -0.913545 0
    outer loop
      vertex 25.0432 11.4127 0
      vertex 27.335 10.3923 5
      vertex 25.0432 11.4127 5
    endloop
  endfacet
  facet normal -0.406737 -0.913545 -0
    outer loop
      vertex 27.335 10.3923 5
      vertex 25.0432 11.4127 0
      vertex 27.335 10.3923 0
    endloop
  endfacet
  facet normal 0.994522 -0.104529 0
    outer loop
      vertex 9.335 0 5
      vertex 9.59723 2.49494 0
      vertex 9.59723 2.49494 5
    endloop
  endfacet
  facet normal 0.994522 -0.104529 0
    outer loop
      vertex 9.59723 2.49494 0
      vertex 9.335 0 5
      vertex 9.335 0 0
    endloop
  endfacet
  facet normal 0.866025 -0.5 0
    outer loop
      vertex 10.3725 4.88084 5
      vertex 11.6268 7.05342 0
      vertex 11.6268 7.05342 5
    endloop
  endfacet
  facet normal 0.866025 -0.5 0
    outer loop
      vertex 11.6268 7.05342 0
      vertex 10.3725 4.88084 5
      vertex 10.3725 4.88084 0
    endloop
  endfacet
  facet normal 0.587785 -0.809017 0
    outer loop
      vertex 13.3054 8.91774 0
      vertex 15.335 10.3923 5
      vertex 13.3054 8.91774 5
    endloop
  endfacet
  facet normal 0.587785 -0.809017 0
    outer loop
      vertex 15.335 10.3923 5
      vertex 13.3054 8.91774 0
      vertex 15.335 10.3923 0
    endloop
  endfacet
  facet normal 0.207912 -0.978148 0
    outer loop
      vertex 17.6268 11.4127 0
      vertex 20.0807 11.9343 5
      vertex 17.6268 11.4127 5
    endloop
  endfacet
  facet normal 0.207912 -0.978148 0
    outer loop
      vertex 20.0807 11.9343 5
      vertex 17.6268 11.4127 0
      vertex 20.0807 11.9343 0
    endloop
  endfacet
  facet normal 0.743145 -0.669131 0
    outer loop
      vertex 11.6268 7.05342 5
      vertex 13.3054 8.91774 0
      vertex 13.3054 8.91774 5
    endloop
  endfacet
  facet normal 0.743145 -0.669131 0
    outer loop
      vertex 13.3054 8.91774 0
      vertex 11.6268 7.05342 5
      vertex 11.6268 7.05342 0
    endloop
  endfacet
  facet normal -0.994522 -0.104529 0
    outer loop
      vertex 33.335 0 0
      vertex 33.0728 2.49494 5
      vertex 33.0728 2.49494 0
    endloop
  endfacet
  facet normal -0.994522 -0.104529 0
    outer loop
      vertex 33.0728 2.49494 5
      vertex 33.335 0 0
      vertex 33.335 0 5
    endloop
  endfacet
  facet normal -0.951057 0.309016 0
    outer loop
      vertex 32.2975 -4.88084 0
      vertex 33.0728 -2.49494 5
      vertex 33.0728 -2.49494 0
    endloop
  endfacet
  facet normal -0.951057 0.309016 0
    outer loop
      vertex 33.0728 -2.49494 5
      vertex 32.2975 -4.88084 0
      vertex 32.2975 -4.88084 5
    endloop
  endfacet
  facet normal 0.866025 0.5 0
    outer loop
      vertex 11.6268 -7.05342 5
      vertex 10.3725 -4.88084 0
      vertex 10.3725 -4.88084 5
    endloop
  endfacet
  facet normal 0.866025 0.5 0
    outer loop
      vertex 10.3725 -4.88084 0
      vertex 11.6268 -7.05342 5
      vertex 11.6268 -7.05342 0
    endloop
  endfacet
  facet normal -0.587785 0.809017 0
    outer loop
      vertex 29.3646 -8.91774 0
      vertex 27.335 -10.3923 5
      vertex 29.3646 -8.91774 5
    endloop
  endfacet
  facet normal -0.587785 0.809017 0
    outer loop
      vertex 27.335 -10.3923 5
      vertex 29.3646 -8.91774 0
      vertex 27.335 -10.3923 0
    endloop
  endfacet
  facet normal -0.207912 -0.978148 0
    outer loop
      vertex 22.5893 11.9343 0
      vertex 25.0432 11.4127 5
      vertex 22.5893 11.9343 5
    endloop
  endfacet
  facet normal -0.207912 -0.978148 -0
    outer loop
      vertex 25.0432 11.4127 5
      vertex 22.5893 11.9343 0
      vertex 25.0432 11.4127 0
    endloop
  endfacet
  facet normal 0.951057 -0.309017 0
    outer loop
      vertex 9.59723 2.49494 5
      vertex 10.3725 4.88084 0
      vertex 10.3725 4.88084 5
    endloop
  endfacet
  facet normal 0.951057 -0.309017 0
    outer loop
      vertex 10.3725 4.88084 0
      vertex 9.59723 2.49494 5
      vertex 9.59723 2.49494 0
    endloop
  endfacet
  facet normal -0.866025 0.5 0
    outer loop
      vertex 31.0432 -7.05342 0
      vertex 32.2975 -4.88084 5
      vertex 32.2975 -4.88084 0
    endloop
  endfacet
  facet normal -0.866025 0.5 0
    outer loop
      vertex 32.2975 -4.88084 5
      vertex 31.0432 -7.05342 0
      vertex 31.0432 -7.05342 5
    endloop
  endfacet
  facet normal 0.994522 0.104529 0
    outer loop
      vertex 9.59723 -2.49494 5
      vertex 9.335 0 0
      vertex 9.335 0 5
    endloop
  endfacet
  facet normal 0.994522 0.104529 0
    outer loop
      vertex 9.335 0 0
      vertex 9.59723 -2.49494 5
      vertex 9.59723 -2.49494 0
    endloop
  endfacet
  facet normal -0.207912 0.978148 0
    outer loop
      vertex 25.0432 -11.4127 0
      vertex 22.5893 -11.9343 5
      vertex 25.0432 -11.4127 5
    endloop
  endfacet
  facet normal -0.207912 0.978148 0
    outer loop
      vertex 22.5893 -11.9343 5
      vertex 25.0432 -11.4127 0
      vertex 22.5893 -11.9343 0
    endloop
  endfacet
  facet normal -0.406737 0.913545 0
    outer loop
      vertex 27.335 -10.3923 0
      vertex 25.0432 -11.4127 5
      vertex 27.335 -10.3923 5
    endloop
  endfacet
  facet normal -0.406737 0.913545 0
    outer loop
      vertex 25.0432 -11.4127 5
      vertex 27.335 -10.3923 0
      vertex 25.0432 -11.4127 0
    endloop
  endfacet
  facet normal 0.207912 0.978148 -0
    outer loop
      vertex 20.0807 -11.9343 0
      vertex 17.6268 -11.4127 5
      vertex 20.0807 -11.9343 5
    endloop
  endfacet
  facet normal 0.207912 0.978148 0
    outer loop
      vertex 17.6268 -11.4127 5
      vertex 20.0807 -11.9343 0
      vertex 17.6268 -11.4127 0
    endloop
  endfacet
  facet normal 0 1 -0
    outer loop
      vertex 22.5893 -11.9343 0
      vertex 20.0807 -11.9343 5
      vertex 22.5893 -11.9343 5
    endloop
  endfacet
  facet normal 0 1 0
    outer loop
      vertex 20.0807 -11.9343 5
      vertex 22.5893 -11.9343 0
      vertex 20.0807 -11.9343 0
    endloop
  endfacet
  facet normal 0.951057 0.309017 0
    outer loop
      vertex 10.3725 -4.88084 5
      vertex 9.59723 -2.49494 0
      vertex 9.59723 -2.49494 5
    endloop
  endfacet
  facet normal 0.951057 0.309017 0
    outer loop
      vertex 9.59723 -2.49494 0
      vertex 10.3725 -4.88084 5
      vertex 10.3725 -4.88084 0
    endloop
  endfacet
  facet normal 0.743145 0.669131 0
    outer loop
      vertex 13.3054 -8.91774 5
      vertex 11.6268 -7.05342 0
      vertex 11.6268 -7.05342 5
    endloop
  endfacet
  facet normal 0.743145 0.669131 0
    outer loop
      vertex 11.6268 -7.05342 0
      vertex 13.3054 -8.91774 5
      vertex 13.3054 -8.91774 0
    endloop
  endfacet
  facet normal -0.743145 0.669131 0
    outer loop
      vertex 29.3646 -8.91774 0
      vertex 31.0432 -7.05342 5
      vertex 31.0432 -7.05342 0
    endloop
  endfacet
  facet normal -0.743145 0.669131 0
    outer loop
      vertex 31.0432 -7.05342 5
      vertex 29.3646 -8.91774 0
      vertex 29.3646 -8.91774 5
    endloop
  endfacet
  facet normal 0.587785 0.809017 -0
    outer loop
      vertex 15.335 -10.3923 0
      vertex 13.3054 -8.91774 5
      vertex 15.335 -10.3923 5
    endloop
  endfacet
  facet normal 0.587785 0.809017 0
    outer loop
      vertex 13.3054 -8.91774 5
      vertex 15.335 -10.3923 0
      vertex 13.3054 -8.91774 0
    endloop
  endfacet
  facet normal 0.406737 0.913545 -0
    outer loop
      vertex 17.6268 -11.4127 0
      vertex 15.335 -10.3923 5
      vertex 17.6268 -11.4127 5
    endloop
  endfacet
  facet normal 0.406737 0.913545 0
    outer loop
      vertex 15.335 -10.3923 5
      vertex 17.6268 -11.4127 0
      vertex 15.335 -10.3923 0
    endloop
  endfacet
  facet normal -0.92388 -0.382683 0
    outer loop
      vertex 39.585 16 0
      vertex 38.926 17.591 5
      vertex 38.926 17.591 0
    endloop
  endfacet
  facet normal -0.92388 -0.382683 0
    outer loop
      vertex 38.926 17.591 5
      vertex 39.585 16 0
      vertex 39.585 16 5
    endloop
  endfacet
  facet normal 0.382683 -0.92388 0
    outer loop
      vertex 35.744 17.591 0
      vertex 37.335 18.25 5
      vertex 35.744 17.591 5
    endloop
  endfacet
  facet normal 0.382683 -0.92388 0
    outer loop
      vertex 37.335 18.25 5
      vertex 35.744 17.591 0
      vertex 37.335 18.25 0
    endloop
  endfacet
  facet normal -0.382683 -0.92388 0
    outer loop
      vertex 37.335 18.25 0
      vertex 38.926 17.591 5
      vertex 37.335 18.25 5
    endloop
  endfacet
  facet normal -0.382683 -0.92388 -0
    outer loop
      vertex 38.926 17.591 5
      vertex 37.335 18.25 0
      vertex 38.926 17.591 0
    endloop
  endfacet
  facet normal 0.92388 -0.382683 0
    outer loop
      vertex 35.085 16 5
      vertex 35.744 17.591 0
      vertex 35.744 17.591 5
    endloop
  endfacet
  facet normal 0.92388 -0.382683 0
    outer loop
      vertex 35.744 17.591 0
      vertex 35.085 16 5
      vertex 35.085 16 0
    endloop
  endfacet
  facet normal -0.92388 0.382682 0
    outer loop
      vertex 38.926 14.409 0
      vertex 39.585 16 5
      vertex 39.585 16 0
    endloop
  endfacet
  facet normal -0.92388 0.382682 0
    outer loop
      vertex 39.585 16 5
      vertex 38.926 14.409 0
      vertex 38.926 14.409 5
    endloop
  endfacet
  facet normal 0.382683 0.92388 -0
    outer loop
      vertex 37.335 13.75 0
      vertex 35.744 14.409 5
      vertex 37.335 13.75 5
    endloop
  endfacet
  facet normal 0.382683 0.92388 0
    outer loop
      vertex 35.744 14.409 5
      vertex 37.335 13.75 0
      vertex 35.744 14.409 0
    endloop
  endfacet
  facet normal 0.92388 0.382682 0
    outer loop
      vertex 35.744 14.409 5
      vertex 35.085 16 0
      vertex 35.085 16 5
    endloop
  endfacet
  facet normal 0.92388 0.382682 0
    outer loop
      vertex 35.085 16 0
      vertex 35.744 14.409 5
      vertex 35.744 14.409 0
    endloop
  endfacet
  facet normal -0.382683 0.92388 0
    outer loop
      vertex 38.926 14.409 0
      vertex 37.335 13.75 5
      vertex 38.926 14.409 5
    endloop
  endfacet
  facet normal -0.382683 0.92388 0
    outer loop
      vertex 37.335 13.75 5
      vertex 38.926 14.409 0
      vertex 37.335 13.75 0
    endloop
  endfacet
  facet normal -0.92388 -0.382683 0
    outer loop
      vertex 7.585 16 0
      vertex 6.92599 17.591 5
      vertex 6.92599 17.591 0
    endloop
  endfacet
  facet normal -0.92388 -0.382683 0
    outer loop
      vertex 6.92599 17.591 5
      vertex 7.585 16 0
      vertex 7.585 16 5
    endloop
  endfacet
  facet normal 0.923879 -0.382684 0
    outer loop
      vertex 3.085 16 5
      vertex 3.74401 17.591 0
      vertex 3.74401 17.591 5
    endloop
  endfacet
  facet normal 0.923879 -0.382684 0
    outer loop
      vertex 3.74401 17.591 0
      vertex 3.085 16 5
      vertex 3.085 16 0
    endloop
  endfacet
  facet normal -0.382683 -0.92388 0
    outer loop
      vertex 5.335 18.25 0
      vertex 6.92599 17.591 5
      vertex 5.335 18.25 5
    endloop
  endfacet
  facet normal -0.382683 -0.92388 -0
    outer loop
      vertex 6.92599 17.591 5
      vertex 5.335 18.25 0
      vertex 6.92599 17.591 0
    endloop
  endfacet
  facet normal 0.382684 -0.923879 0
    outer loop
      vertex 3.74401 17.591 0
      vertex 5.335 18.25 5
      vertex 3.74401 17.591 5
    endloop
  endfacet
  facet normal 0.382684 -0.923879 0
    outer loop
      vertex 5.335 18.25 5
      vertex 3.74401 17.591 0
      vertex 5.335 18.25 0
    endloop
  endfacet
  facet normal 0.92388 0.382683 0
    outer loop
      vertex 3.74401 14.409 5
      vertex 3.085 16 0
      vertex 3.085 16 5
    endloop
  endfacet
  facet normal 0.92388 0.382683 0
    outer loop
      vertex 3.085 16 0
      vertex 3.74401 14.409 5
      vertex 3.74401 14.409 0
    endloop
  endfacet
  facet normal -0.92388 0.382683 0
    outer loop
      vertex 6.92599 14.409 0
      vertex 7.585 16 5
      vertex 7.585 16 0
    endloop
  endfacet
  facet normal -0.92388 0.382683 0
    outer loop
      vertex 7.585 16 5
      vertex 6.92599 14.409 0
      vertex 6.92599 14.409 5
    endloop
  endfacet
  facet normal -0.382683 0.92388 0
    outer loop
      vertex 6.92599 14.409 0
      vertex 5.335 13.75 5
      vertex 6.92599 14.409 5
    endloop
  endfacet
  facet normal -0.382683 0.92388 0
    outer loop
      vertex 5.335 13.75 5
      vertex 6.92599 14.409 0
      vertex 5.335 13.75 0
    endloop
  endfacet
  facet normal 0.382683 0.92388 -0
    outer loop
      vertex 5.335 13.75 0
      vertex 3.74401 14.409 5
      vertex 5.335 13.75 5
    endloop
  endfacet
  facet normal 0.382683 0.92388 0
    outer loop
      vertex 3.74401 14.409 5
      vertex 5.335 13.75 0
      vertex 3.74401 14.409 0
    endloop
  endfacet
  facet normal -0.92388 -0.382683 0
    outer loop
      vertex 7.585 -16 0
      vertex 6.92599 -14.409 5
      vertex 6.92599 -14.409 0
    endloop
  endfacet
  facet normal -0.92388 -0.382683 0
    outer loop
      vertex 6.92599 -14.409 5
      vertex 7.585 -16 0
      vertex 7.585 -16 5
    endloop
  endfacet
  facet normal 0.92388 -0.382683 0
    outer loop
      vertex 3.085 -16 5
      vertex 3.74401 -14.409 0
      vertex 3.74401 -14.409 5
    endloop
  endfacet
  facet normal 0.92388 -0.382683 0
    outer loop
      vertex 3.74401 -14.409 0
      vertex 3.085 -16 5
      vertex 3.085 -16 0
    endloop
  endfacet
  facet normal -0.382683 0.92388 0
    outer loop
      vertex 6.92599 -17.591 0
      vertex 5.335 -18.25 5
      vertex 6.92599 -17.591 5
    endloop
  endfacet
  facet normal -0.382683 0.92388 0
    outer loop
      vertex 5.335 -18.25 5
      vertex 6.92599 -17.591 0
      vertex 5.335 -18.25 0
    endloop
  endfacet
  facet normal 0.382683 -0.92388 0
    outer loop
      vertex 3.74401 -14.409 0
      vertex 5.335 -13.75 5
      vertex 3.74401 -14.409 5
    endloop
  endfacet
  facet normal 0.382683 -0.92388 0
    outer loop
      vertex 5.335 -13.75 5
      vertex 3.74401 -14.409 0
      vertex 5.335 -13.75 0
    endloop
  endfacet
  facet normal -0.382683 -0.92388 0
    outer loop
      vertex 5.335 -13.75 0
      vertex 6.92599 -14.409 5
      vertex 5.335 -13.75 5
    endloop
  endfacet
  facet normal -0.382683 -0.92388 -0
    outer loop
      vertex 6.92599 -14.409 5
      vertex 5.335 -13.75 0
      vertex 6.92599 -14.409 0
    endloop
  endfacet
  facet normal 0.923879 0.382684 0
    outer loop
      vertex 3.74401 -17.591 5
      vertex 3.085 -16 0
      vertex 3.085 -16 5
    endloop
  endfacet
  facet normal 0.923879 0.382684 0
    outer loop
      vertex 3.085 -16 0
      vertex 3.74401 -17.591 5
      vertex 3.74401 -17.591 0
    endloop
  endfacet
  facet normal -0.92388 0.382683 0
    outer loop
      vertex 6.92599 -17.591 0
      vertex 7.585 -16 5
      vertex 7.585 -16 0
    endloop
  endfacet
  facet normal -0.92388 0.382683 0
    outer loop
      vertex 7.585 -16 5
      vertex 6.92599 -17.591 0
      vertex 6.92599 -17.591 5
    endloop
  endfacet
  facet normal 0.382684 0.923879 -0
    outer loop
      vertex 5.335 -18.25 0
      vertex 3.74401 -17.591 5
      vertex 5.335 -18.25 5
    endloop
  endfacet
  facet normal 0.382684 0.923879 0
    outer loop
      vertex 3.74401 -17.591 5
      vertex 5.335 -18.25 0
      vertex 3.74401 -17.591 0
    endloop
  endfacet
  facet normal -0.92388 -0.382682 0
    outer loop
      vertex 39.585 -16 0
      vertex 38.926 -14.409 5
      vertex 38.926 -14.409 0
    endloop
  endfacet
  facet normal -0.92388 -0.382682 0
    outer loop
      vertex 38.926 -14.409 5
      vertex 39.585 -16 0
      vertex 39.585 -16 5
    endloop
  endfacet
  facet normal 0.382683 0.92388 -0
    outer loop
      vertex 37.335 -18.25 0
      vertex 35.744 -17.591 5
      vertex 37.335 -18.25 5
    endloop
  endfacet
  facet normal 0.382683 0.92388 0
    outer loop
      vertex 35.744 -17.591 5
      vertex 37.335 -18.25 0
      vertex 35.744 -17.591 0
    endloop
  endfacet
  facet normal 0.382683 -0.92388 0
    outer loop
      vertex 35.744 -14.409 0
      vertex 37.335 -13.75 5
      vertex 35.744 -14.409 5
    endloop
  endfacet
  facet normal 0.382683 -0.92388 0
    outer loop
      vertex 37.335 -13.75 5
      vertex 35.744 -14.409 0
      vertex 37.335 -13.75 0
    endloop
  endfacet
  facet normal -0.382683 -0.92388 0
    outer loop
      vertex 37.335 -13.75 0
      vertex 38.926 -14.409 5
      vertex 37.335 -13.75 5
    endloop
  endfacet
  facet normal -0.382683 -0.92388 -0
    outer loop
      vertex 38.926 -14.409 5
      vertex 37.335 -13.75 0
      vertex 38.926 -14.409 0
    endloop
  endfacet
  facet normal 0.92388 -0.382682 0
    outer loop
      vertex 35.085 -16 5
      vertex 35.744 -14.409 0
      vertex 35.744 -14.409 5
    endloop
  endfacet
  facet normal 0.92388 -0.382682 0
    outer loop
      vertex 35.744 -14.409 0
      vertex 35.085 -16 5
      vertex 35.085 -16 0
    endloop
  endfacet
  facet normal -0.92388 0.382683 0
    outer loop
      vertex 38.926 -17.591 0
      vertex 39.585 -16 5
      vertex 39.585 -16 0
    endloop
  endfacet
  facet normal -0.92388 0.382683 0
    outer loop
      vertex 39.585 -16 5
      vertex 38.926 -17.591 0
      vertex 38.926 -17.591 5
    endloop
  endfacet
  facet normal 0.92388 0.382683 0
    outer loop
      vertex 35.744 -17.591 5
      vertex 35.085 -16 0
      vertex 35.085 -16 5
    endloop
  endfacet
  facet normal 0.92388 0.382683 0
    outer loop
      vertex 35.085 -16 0
      vertex 35.744 -17.591 5
      vertex 35.744 -17.591 0
    endloop
  endfacet
  facet normal -0.382683 0.92388 0
    outer loop
      vertex 38.926 -17.591 0
      vertex 37.335 -18.25 5
      vertex 38.926 -17.591 5
    endloop
  endfacet
  facet normal -0.382683 0.92388 0
    outer loop
      vertex 37.335 -18.25 5
      vertex 38.926 -17.591 0
      vertex 37.335 -18.25 0
    endloop
  endfacet
  facet normal -0.980785 -0.19509 0
    outer loop
      vertex -16 14.8333 -18
      vertex -16.3045 16.3641 5
      vertex -16.3045 16.3641 -18
    endloop
  endfacet
  facet normal -0.980785 -0.19509 0
    outer loop
      vertex -16.3045 16.3641 5
      vertex -16 14.8333 -18
      vertex -16 14.8333 5
    endloop
  endfacet
  facet normal 0.980785 -0.19509 0
    outer loop
      vertex -24 14.8333 5
      vertex -23.6955 16.3641 -18
      vertex -23.6955 16.3641 5
    endloop
  endfacet
  facet normal 0.980785 -0.19509 0
    outer loop
      vertex -23.6955 16.3641 -18
      vertex -24 14.8333 5
      vertex -24 14.8333 -18
    endloop
  endfacet
  facet normal -0.195091 -0.980785 0
    outer loop
      vertex -20 18.8333 -18
      vertex -18.4693 18.5289 5
      vertex -20 18.8333 5
    endloop
  endfacet
  facet normal -0.195091 -0.980785 -0
    outer loop
      vertex -18.4693 18.5289 5
      vertex -20 18.8333 -18
      vertex -18.4693 18.5289 -18
    endloop
  endfacet
  facet normal -0.831469 -0.555571 0
    outer loop
      vertex -16.3045 16.3641 -18
      vertex -17.1716 17.6618 5
      vertex -17.1716 17.6618 -18
    endloop
  endfacet
  facet normal -0.831469 -0.555571 0
    outer loop
      vertex -17.1716 17.6618 5
      vertex -16.3045 16.3641 -18
      vertex -16.3045 16.3641 5
    endloop
  endfacet
  facet normal -0.831469 0.555571 0
    outer loop
      vertex -17.1716 12.0049 -18
      vertex -16.3045 13.3026 5
      vertex -16.3045 13.3026 -18
    endloop
  endfacet
  facet normal -0.831469 0.555571 0
    outer loop
      vertex -16.3045 13.3026 5
      vertex -17.1716 12.0049 -18
      vertex -17.1716 12.0049 5
    endloop
  endfacet
  facet normal -0.55557 0.83147 0
    outer loop
      vertex -17.1716 12.0049 -18
      vertex -18.4693 11.1378 5
      vertex -17.1716 12.0049 5
    endloop
  endfacet
  facet normal -0.55557 0.83147 0
    outer loop
      vertex -18.4693 11.1378 5
      vertex -17.1716 12.0049 -18
      vertex -18.4693 11.1378 -18
    endloop
  endfacet
  facet normal 0.195091 0.980785 -0
    outer loop
      vertex -20 10.8333 -18
      vertex -21.5307 11.1378 5
      vertex -20 10.8333 5
    endloop
  endfacet
  facet normal 0.195091 0.980785 0
    outer loop
      vertex -21.5307 11.1378 5
      vertex -20 10.8333 -18
      vertex -21.5307 11.1378 -18
    endloop
  endfacet
  facet normal 0.195091 -0.980785 0
    outer loop
      vertex -21.5307 18.5289 -18
      vertex -20 18.8333 5
      vertex -21.5307 18.5289 5
    endloop
  endfacet
  facet normal 0.195091 -0.980785 0
    outer loop
      vertex -20 18.8333 5
      vertex -21.5307 18.5289 -18
      vertex -20 18.8333 -18
    endloop
  endfacet
  facet normal 0.831469 -0.555571 0
    outer loop
      vertex -23.6955 16.3641 5
      vertex -22.8284 17.6618 -18
      vertex -22.8284 17.6618 5
    endloop
  endfacet
  facet normal 0.831469 -0.555571 0
    outer loop
      vertex -22.8284 17.6618 -18
      vertex -23.6955 16.3641 5
      vertex -23.6955 16.3641 -18
    endloop
  endfacet
  facet normal 0.55557 -0.83147 0
    outer loop
      vertex -22.8284 17.6618 -18
      vertex -21.5307 18.5289 5
      vertex -22.8284 17.6618 5
    endloop
  endfacet
  facet normal 0.55557 -0.83147 0
    outer loop
      vertex -21.5307 18.5289 5
      vertex -22.8284 17.6618 -18
      vertex -21.5307 18.5289 -18
    endloop
  endfacet
  facet normal 0.980785 0.19509 0
    outer loop
      vertex -23.6955 13.3026 5
      vertex -24 14.8333 -18
      vertex -24 14.8333 5
    endloop
  endfacet
  facet normal 0.980785 0.19509 0
    outer loop
      vertex -24 14.8333 -18
      vertex -23.6955 13.3026 5
      vertex -23.6955 13.3026 -18
    endloop
  endfacet
  facet normal 0.55557 0.83147 -0
    outer loop
      vertex -21.5307 11.1378 -18
      vertex -22.8284 12.0049 5
      vertex -21.5307 11.1378 5
    endloop
  endfacet
  facet normal 0.55557 0.83147 0
    outer loop
      vertex -22.8284 12.0049 5
      vertex -21.5307 11.1378 -18
      vertex -22.8284 12.0049 -18
    endloop
  endfacet
  facet normal -0.55557 -0.83147 0
    outer loop
      vertex -18.4693 18.5289 -18
      vertex -17.1716 17.6618 5
      vertex -18.4693 18.5289 5
    endloop
  endfacet
  facet normal -0.55557 -0.83147 -0
    outer loop
      vertex -17.1716 17.6618 5
      vertex -18.4693 18.5289 -18
      vertex -17.1716 17.6618 -18
    endloop
  endfacet
  facet normal -0.195091 0.980785 0
    outer loop
      vertex -18.4693 11.1378 -18
      vertex -20 10.8333 5
      vertex -18.4693 11.1378 5
    endloop
  endfacet
  facet normal -0.195091 0.980785 0
    outer loop
      vertex -20 10.8333 5
      vertex -18.4693 11.1378 -18
      vertex -20 10.8333 -18
    endloop
  endfacet
  facet normal 0.831469 0.555571 0
    outer loop
      vertex -22.8284 12.0049 5
      vertex -23.6955 13.3026 -18
      vertex -23.6955 13.3026 5
    endloop
  endfacet
  facet normal 0.831469 0.555571 0
    outer loop
      vertex -23.6955 13.3026 -18
      vertex -22.8284 12.0049 5
      vertex -22.8284 12.0049 -18
    endloop
  endfacet
  facet normal -0.980785 0.19509 0
    outer loop
      vertex -16.3045 13.3026 -18
      vertex -16 14.8333 5
      vertex -16 14.8333 -18
    endloop
  endfacet
  facet normal -0.980785 0.19509 0
    outer loop
      vertex -16 14.8333 5
      vertex -16.3045 13.3026 -18
      vertex -16.3045 13.3026 5
    endloop
  endfacet
  facet normal -0.980785 -0.19509 0
    outer loop
      vertex -16 -14.8333 -18
      vertex -16.3045 -13.3026 5
      vertex -16.3045 -13.3026 -18
    endloop
  endfacet
  facet normal -0.980785 -0.19509 0
    outer loop
      vertex -16.3045 -13.3026 5
      vertex -16 -14.8333 -18
      vertex -16 -14.8333 5
    endloop
  endfacet
  facet normal 0.980785 -0.19509 0
    outer loop
      vertex -24 -14.8333 5
      vertex -23.6955 -13.3026 -18
      vertex -23.6955 -13.3026 5
    endloop
  endfacet
  facet normal 0.980785 -0.19509 0
    outer loop
      vertex -23.6955 -13.3026 -18
      vertex -24 -14.8333 5
      vertex -24 -14.8333 -18
    endloop
  endfacet
  facet normal -0.195091 -0.980785 0
    outer loop
      vertex -20 -10.8333 -18
      vertex -18.4693 -11.1378 5
      vertex -20 -10.8333 5
    endloop
  endfacet
  facet normal -0.195091 -0.980785 -0
    outer loop
      vertex -18.4693 -11.1378 5
      vertex -20 -10.8333 -18
      vertex -18.4693 -11.1378 -18
    endloop
  endfacet
  facet normal -0.831469 -0.555571 0
    outer loop
      vertex -16.3045 -13.3026 -18
      vertex -17.1716 -12.0049 5
      vertex -17.1716 -12.0049 -18
    endloop
  endfacet
  facet normal -0.831469 -0.555571 0
    outer loop
      vertex -17.1716 -12.0049 5
      vertex -16.3045 -13.3026 -18
      vertex -16.3045 -13.3026 5
    endloop
  endfacet
  facet normal -0.831469 0.555571 0
    outer loop
      vertex -17.1716 -17.6618 -18
      vertex -16.3045 -16.3641 5
      vertex -16.3045 -16.3641 -18
    endloop
  endfacet
  facet normal -0.831469 0.555571 0
    outer loop
      vertex -16.3045 -16.3641 5
      vertex -17.1716 -17.6618 -18
      vertex -17.1716 -17.6618 5
    endloop
  endfacet
  facet normal 0.195091 0.980785 -0
    outer loop
      vertex -20 -18.8333 -18
      vertex -21.5307 -18.5289 5
      vertex -20 -18.8333 5
    endloop
  endfacet
  facet normal 0.195091 0.980785 0
    outer loop
      vertex -21.5307 -18.5289 5
      vertex -20 -18.8333 -18
      vertex -21.5307 -18.5289 -18
    endloop
  endfacet
  facet normal -0.55557 -0.83147 0
    outer loop
      vertex -18.4693 -11.1378 -18
      vertex -17.1716 -12.0049 5
      vertex -18.4693 -11.1378 5
    endloop
  endfacet
  facet normal -0.55557 -0.83147 -0
    outer loop
      vertex -17.1716 -12.0049 5
      vertex -18.4693 -11.1378 -18
      vertex -17.1716 -12.0049 -18
    endloop
  endfacet
  facet normal 0.195091 -0.980785 0
    outer loop
      vertex -21.5307 -11.1378 -18
      vertex -20 -10.8333 5
      vertex -21.5307 -11.1378 5
    endloop
  endfacet
  facet normal 0.195091 -0.980785 0
    outer loop
      vertex -20 -10.8333 5
      vertex -21.5307 -11.1378 -18
      vertex -20 -10.8333 -18
    endloop
  endfacet
  facet normal 0.831469 -0.555571 0
    outer loop
      vertex -23.6955 -13.3026 5
      vertex -22.8284 -12.0049 -18
      vertex -22.8284 -12.0049 5
    endloop
  endfacet
  facet normal 0.831469 -0.555571 0
    outer loop
      vertex -22.8284 -12.0049 -18
      vertex -23.6955 -13.3026 5
      vertex -23.6955 -13.3026 -18
    endloop
  endfacet
  facet normal 0.55557 -0.83147 0
    outer loop
      vertex -22.8284 -12.0049 -18
      vertex -21.5307 -11.1378 5
      vertex -22.8284 -12.0049 5
    endloop
  endfacet
  facet normal 0.55557 -0.83147 0
    outer loop
      vertex -21.5307 -11.1378 5
      vertex -22.8284 -12.0049 -18
      vertex -21.5307 -11.1378 -18
    endloop
  endfacet
  facet normal 0.980785 0.19509 0
    outer loop
      vertex -23.6955 -16.3641 5
      vertex -24 -14.8333 -18
      vertex -24 -14.8333 5
    endloop
  endfacet
  facet normal 0.980785 0.19509 0
    outer loop
      vertex -24 -14.8333 -18
      vertex -23.6955 -16.3641 5
      vertex -23.6955 -16.3641 -18
    endloop
  endfacet
  facet normal 0.55557 0.83147 -0
    outer loop
      vertex -21.5307 -18.5289 -18
      vertex -22.8284 -17.6618 5
      vertex -21.5307 -18.5289 5
    endloop
  endfacet
  facet normal 0.55557 0.83147 0
    outer loop
      vertex -22.8284 -17.6618 5
      vertex -21.5307 -18.5289 -18
      vertex -22.8284 -17.6618 -18
    endloop
  endfacet
  facet normal -0.195091 0.980785 0
    outer loop
      vertex -18.4693 -18.5289 -18
      vertex -20 -18.8333 5
      vertex -18.4693 -18.5289 5
    endloop
  endfacet
  facet normal -0.195091 0.980785 0
    outer loop
      vertex -20 -18.8333 5
      vertex -18.4693 -18.5289 -18
      vertex -20 -18.8333 -18
    endloop
  endfacet
  facet normal 0.831469 0.555571 0
    outer loop
      vertex -22.8284 -17.6618 5
      vertex -23.6955 -16.3641 -18
      vertex -23.6955 -16.3641 5
    endloop
  endfacet
  facet normal 0.831469 0.555571 0
    outer loop
      vertex -23.6955 -16.3641 -18
      vertex -22.8284 -17.6618 5
      vertex -22.8284 -17.6618 -18
    endloop
  endfacet
  facet normal -0.980785 0.19509 0
    outer loop
      vertex -16.3045 -16.3641 -18
      vertex -16 -14.8333 5
      vertex -16 -14.8333 -18
    endloop
  endfacet
  facet normal -0.980785 0.19509 0
    outer loop
      vertex -16 -14.8333 5
      vertex -16.3045 -16.3641 -18
      vertex -16.3045 -16.3641 5
    endloop
  endfacet
  facet normal -0.55557 0.83147 0
    outer loop
      vertex -17.1716 -17.6618 -18
      vertex -18.4693 -18.5289 5
      vertex -17.1716 -17.6618 5
    endloop
  endfacet
  facet normal -0.55557 0.83147 0
    outer loop
      vertex -18.4693 -18.5289 5
      vertex -17.1716 -17.6618 -18
      vertex -18.4693 -18.5289 -18
    endloop
  endfacet
  facet normal -1 0 0
    outer loop
      vertex -40 -22.8333 -18
      vertex -40 22.8333 5
      vertex -40 22.8333 -18
    endloop
  endfacet
  facet normal -1 -0 0
    outer loop
      vertex -40 22.8333 5
      vertex -40 -22.8333 -18
      vertex -40 -22.8333 5
    endloop
  endfacet
  facet normal -0 0 1
    outer loop
      vertex -16.3045 -13.3026 5
      vertex 0 -22.8333 5
      vertex -16.3045 13.3026 5
    endloop
  endfacet
  facet normal 0 0 1
    outer loop
      vertex 0 -22.8333 5
      vertex -16.3045 -13.3026 5
      vertex -16 -14.8333 5
    endloop
  endfacet
  facet normal -0 0 1
    outer loop
      vertex -17.1716 12.0049 5
      vertex -16.3045 -13.3026 5
      vertex -16.3045 13.3026 5
    endloop
  endfacet
  facet normal 0 0 1
    outer loop
      vertex -17.1716 12.0049 5
      vertex -17.1716 -12.0049 5
      vertex -16.3045 -13.3026 5
    endloop
  endfacet
  facet normal -0 0 1
    outer loop
      vertex -18.4693 11.1378 5
      vertex -17.1716 -12.0049 5
      vertex -17.1716 12.0049 5
    endloop
  endfacet
  facet normal 0 0 1
    outer loop
      vertex -18.4693 11.1378 5
      vertex -18.4693 -11.1378 5
      vertex -17.1716 -12.0049 5
    endloop
  endfacet
  facet normal -0 0 1
    outer loop
      vertex -20 10.8333 5
      vertex -18.4693 -11.1378 5
      vertex -18.4693 11.1378 5
    endloop
  endfacet
  facet normal 0 0 1
    outer loop
      vertex -20 10.8333 5
      vertex -20 -10.8333 5
      vertex -18.4693 -11.1378 5
    endloop
  endfacet
  facet normal 0 0 1
    outer loop
      vertex -21.5307 11.1378 5
      vertex -20 -10.8333 5
      vertex -20 10.8333 5
    endloop
  endfacet
  facet normal 0 0 1
    outer loop
      vertex -21.5307 11.1378 5
      vertex -21.5307 -11.1378 5
      vertex -20 -10.8333 5
    endloop
  endfacet
  facet normal 0 0 1
    outer loop
      vertex -22.8284 12.0049 5
      vertex -21.5307 -11.1378 5
      vertex -21.5307 11.1378 5
    endloop
  endfacet
  facet normal 0 0 1
    outer loop
      vertex -22.8284 12.0049 5
      vertex -22.8284 -12.0049 5
      vertex -21.5307 -11.1378 5
    endloop
  endfacet
  facet normal 0 0 1
    outer loop
      vertex -23.6955 13.3026 5
      vertex -22.8284 -12.0049 5
      vertex -22.8284 12.0049 5
    endloop
  endfacet
  facet normal 0 0 1
    outer loop
      vertex -23.6955 13.3026 5
      vertex -23.6955 -13.3026 5
      vertex -22.8284 -12.0049 5
    endloop
  endfacet
  facet normal 0 0 1
    outer loop
      vertex -40 22.8333 5
      vertex -23.6955 13.3026 5
      vertex -24 14.8333 5
    endloop
  endfacet
  facet normal 0 0 1
    outer loop
      vertex -23.6955 13.3026 5
      vertex -40 22.8333 5
      vertex -23.6955 -13.3026 5
    endloop
  endfacet
  facet normal 0 0 1
    outer loop
      vertex -16.3045 13.3026 5
      vertex 0 22.8333 5
      vertex -16 14.8333 5
    endloop
  endfacet
  facet normal 0 0 1
    outer loop
      vertex 0 22.8333 5
      vertex -16.3045 16.3641 5
      vertex -16 14.8333 5
    endloop
  endfacet
  facet normal 0 0 1
    outer loop
      vertex 0 22.8333 5
      vertex -17.1716 17.6618 5
      vertex -16.3045 16.3641 5
    endloop
  endfacet
  facet normal 0 0 1
    outer loop
      vertex 0 22.8333 5
      vertex -18.4693 18.5289 5
      vertex -17.1716 17.6618 5
    endloop
  endfacet
  facet normal 0 0 1
    outer loop
      vertex 0 22.8333 5
      vertex -20 18.8333 5
      vertex -18.4693 18.5289 5
    endloop
  endfacet
  facet normal -0 0 1
    outer loop
      vertex -40 22.8333 5
      vertex -20 18.8333 5
      vertex 0 22.8333 5
    endloop
  endfacet
  facet normal 0 0 1
    outer loop
      vertex -40 -22.8333 5
      vertex -23.6955 -13.3026 5
      vertex -40 22.8333 5
    endloop
  endfacet
  facet normal 0 0 1
    outer loop
      vertex -23.6955 16.3641 5
      vertex -40 22.8333 5
      vertex -24 14.8333 5
    endloop
  endfacet
  facet normal 0 0 1
    outer loop
      vertex -22.8284 17.6618 5
      vertex -40 22.8333 5
      vertex -23.6955 16.3641 5
    endloop
  endfacet
  facet normal 0 0 1
    outer loop
      vertex -21.5307 18.5289 5
      vertex -40 22.8333 5
      vertex -22.8284 17.6618 5
    endloop
  endfacet
  facet normal 0 0 1
    outer loop
      vertex -20 18.8333 5
      vertex -40 22.8333 5
      vertex -21.5307 18.5289 5
    endloop
  endfacet
  facet normal 0 0 1
    outer loop
      vertex 0 22.8333 5
      vertex -16.3045 13.3026 5
      vertex 0 -22.8333 5
    endloop
  endfacet
  facet normal -0 0 1
    outer loop
      vertex -16.3045 -16.3641 5
      vertex 0 -22.8333 5
      vertex -16 -14.8333 5
    endloop
  endfacet
  facet normal -0 0 1
    outer loop
      vertex -17.1716 -17.6618 5
      vertex 0 -22.8333 5
      vertex -16.3045 -16.3641 5
    endloop
  endfacet
  facet normal -0 0 1
    outer loop
      vertex -18.4693 -18.5289 5
      vertex 0 -22.8333 5
      vertex -17.1716 -17.6618 5
    endloop
  endfacet
  facet normal -0 0 1
    outer loop
      vertex -20 -18.8333 5
      vertex 0 -22.8333 5
      vertex -18.4693 -18.5289 5
    endloop
  endfacet
  facet normal 0 0 1
    outer loop
      vertex -40 -22.8333 5
      vertex -20 -18.8333 5
      vertex -21.5307 -18.5289 5
    endloop
  endfacet
  facet normal 0 0 1
    outer loop
      vertex -23.6955 -13.3026 5
      vertex -40 -22.8333 5
      vertex -24 -14.8333 5
    endloop
  endfacet
  facet normal 0 0 1
    outer loop
      vertex -20 -18.8333 5
      vertex -40 -22.8333 5
      vertex 0 -22.8333 5
    endloop
  endfacet
  facet normal 0 0 1
    outer loop
      vertex -22.8284 -17.6618 5
      vertex -40 -22.8333 5
      vertex -21.5307 -18.5289 5
    endloop
  endfacet
  facet normal 0 0 1
    outer loop
      vertex -23.6955 -16.3641 5
      vertex -40 -22.8333 5
      vertex -22.8284 -17.6618 5
    endloop
  endfacet
  facet normal 0 0 1
    outer loop
      vertex -24 -14.8333 5
      vertex -40 -22.8333 5
      vertex -23.6955 -16.3641 5
    endloop
  endfacet
  facet normal 1 -0 0
    outer loop
      vertex 0 -22.8333 5
      vertex 0 22.8333 -18
      vertex 0 22.8333 5
    endloop
  endfacet
  facet normal 1 0 0
    outer loop
      vertex 0 22.8333 -18
      vertex 0 -22.8333 5
      vertex 0 -22.8333 -18
    endloop
  endfacet
  facet normal 0 1 -0
    outer loop
      vertex 0 22.8333 -18
      vertex -40 22.8333 5
      vertex 0 22.8333 5
    endloop
  endfacet
  facet normal 0 1 0
    outer loop
      vertex -40 22.8333 5
      vertex 0 22.8333 -18
      vertex -40 22.8333 -18
    endloop
  endfacet
  facet normal 0 0 -1
    outer loop
      vertex -16.3045 13.3026 -18
      vertex 0 22.8333 -18
      vertex -16.3045 -13.3026 -18
    endloop
  endfacet
  facet normal 0 0 -1
    outer loop
      vertex 0 22.8333 -18
      vertex -16.3045 13.3026 -18
      vertex -16 14.8333 -18
    endloop
  endfacet
  facet normal 0 0 -1
    outer loop
      vertex -17.1716 -12.0049 -18
      vertex -16.3045 13.3026 -18
      vertex -16.3045 -13.3026 -18
    endloop
  endfacet
  facet normal 0 0 -1
    outer loop
      vertex -17.1716 -12.0049 -18
      vertex -17.1716 12.0049 -18
      vertex -16.3045 13.3026 -18
    endloop
  endfacet
  facet normal 0 0 -1
    outer loop
      vertex -18.4693 -11.1378 -18
      vertex -17.1716 12.0049 -18
      vertex -17.1716 -12.0049 -18
    endloop
  endfacet
  facet normal 0 0 -1
    outer loop
      vertex -18.4693 -11.1378 -18
      vertex -18.4693 11.1378 -18
      vertex -17.1716 12.0049 -18
    endloop
  endfacet
  facet normal 0 0 -1
    outer loop
      vertex -20 -10.8333 -18
      vertex -18.4693 11.1378 -18
      vertex -18.4693 -11.1378 -18
    endloop
  endfacet
  facet normal 0 0 -1
    outer loop
      vertex -20 -10.8333 -18
      vertex -20 10.8333 -18
      vertex -18.4693 11.1378 -18
    endloop
  endfacet
  facet normal 0 0 -1
    outer loop
      vertex -21.5307 -11.1378 -18
      vertex -20 10.8333 -18
      vertex -20 -10.8333 -18
    endloop
  endfacet
  facet normal 0 0 -1
    outer loop
      vertex -21.5307 -11.1378 -18
      vertex -21.5307 11.1378 -18
      vertex -20 10.8333 -18
    endloop
  endfacet
  facet normal 0 0 -1
    outer loop
      vertex -22.8284 -12.0049 -18
      vertex -21.5307 11.1378 -18
      vertex -21.5307 -11.1378 -18
    endloop
  endfacet
  facet normal 0 0 -1
    outer loop
      vertex -22.8284 -12.0049 -18
      vertex -22.8284 12.0049 -18
      vertex -21.5307 11.1378 -18
    endloop
  endfacet
  facet normal 0 0 -1
    outer loop
      vertex -23.6955 -13.3026 -18
      vertex -22.8284 12.0049 -18
      vertex -22.8284 -12.0049 -18
    endloop
  endfacet
  facet normal 0 0 -1
    outer loop
      vertex -23.6955 -13.3026 -18
      vertex -23.6955 13.3026 -18
      vertex -22.8284 12.0049 -18
    endloop
  endfacet
  facet normal 0 0 -1
    outer loop
      vertex -40 -22.8333 -18
      vertex -23.6955 -13.3026 -18
      vertex -24 -14.8333 -18
    endloop
  endfacet
  facet normal -0 0 -1
    outer loop
      vertex -23.6955 -13.3026 -18
      vertex -40 -22.8333 -18
      vertex -23.6955 13.3026 -18
    endloop
  endfacet
  facet normal 0 0 -1
    outer loop
      vertex -16.3045 -13.3026 -18
      vertex 0 -22.8333 -18
      vertex -16 -14.8333 -18
    endloop
  endfacet
  facet normal 0 0 -1
    outer loop
      vertex 0 -22.8333 -18
      vertex -16.3045 -16.3641 -18
      vertex -16 -14.8333 -18
    endloop
  endfacet
  facet normal 0 0 -1
    outer loop
      vertex 0 -22.8333 -18
      vertex -17.1716 -17.6618 -18
      vertex -16.3045 -16.3641 -18
    endloop
  endfacet
  facet normal 0 0 -1
    outer loop
      vertex 0 -22.8333 -18
      vertex -18.4693 -18.5289 -18
      vertex -17.1716 -17.6618 -18
    endloop
  endfacet
  facet normal 0 0 -1
    outer loop
      vertex 0 -22.8333 -18
      vertex -20 -18.8333 -18
      vertex -18.4693 -18.5289 -18
    endloop
  endfacet
  facet normal 0 0 -1
    outer loop
      vertex -40 -22.8333 -18
      vertex -20 -18.8333 -18
      vertex 0 -22.8333 -18
    endloop
  endfacet
  facet normal 0 0 -1
    outer loop
      vertex -40 22.8333 -18
      vertex -23.6955 13.3026 -18
      vertex -40 -22.8333 -18
    endloop
  endfacet
  facet normal -0 0 -1
    outer loop
      vertex -23.6955 -16.3641 -18
      vertex -40 -22.8333 -18
      vertex -24 -14.8333 -18
    endloop
  endfacet
  facet normal -0 0 -1
    outer loop
      vertex -22.8284 -17.6618 -18
      vertex -40 -22.8333 -18
      vertex -23.6955 -16.3641 -18
    endloop
  endfacet
  facet normal -0 0 -1
    outer loop
      vertex -21.5307 -18.5289 -18
      vertex -40 -22.8333 -18
      vertex -22.8284 -17.6618 -18
    endloop
  endfacet
  facet normal -0 0 -1
    outer loop
      vertex -20 -18.8333 -18
      vertex -40 -22.8333 -18
      vertex -21.5307 -18.5289 -18
    endloop
  endfacet
  facet normal 0 0 -1
    outer loop
      vertex 0 -22.8333 -18
      vertex -16.3045 -13.3026 -18
      vertex 0 22.8333 -18
    endloop
  endfacet
  facet normal 0 0 -1
    outer loop
      vertex -16.3045 16.3641 -18
      vertex 0 22.8333 -18
      vertex -16 14.8333 -18
    endloop
  endfacet
  facet normal 0 0 -1
    outer loop
      vertex -17.1716 17.6618 -18
      vertex 0 22.8333 -18
      vertex -16.3045 16.3641 -18
    endloop
  endfacet
  facet normal 0 0 -1
    outer loop
      vertex -18.4693 18.5289 -18
      vertex 0 22.8333 -18
      vertex -17.1716 17.6618 -18
    endloop
  endfacet
  facet normal 0 0 -1
    outer loop
      vertex -20 18.8333 -18
      vertex 0 22.8333 -18
      vertex -18.4693 18.5289 -18
    endloop
  endfacet
  facet normal 0 0 -1
    outer loop
      vertex -40 22.8333 -18
      vertex -20 18.8333 -18
      vertex -21.5307 18.5289 -18
    endloop
  endfacet
  facet normal 0 0 -1
    outer loop
      vertex -23.6955 13.3026 -18
      vertex -40 22.8333 -18
      vertex -24 14.8333 -18
    endloop
  endfacet
  facet normal 0 0 -1
    outer loop
      vertex -20 18.8333 -18
      vertex -40 22.8333 -18
      vertex 0 22.8333 -18
    endloop
  endfacet
  facet normal 0 0 -1
    outer loop
      vertex -22.8284 17.6618 -18
      vertex -40 22.8333 -18
      vertex -21.5307 18.5289 -18
    endloop
  endfacet
  facet normal 0 0 -1
    outer loop
      vertex -23.6955 16.3641 -18
      vertex -40 22.8333 -18
      vertex -22.8284 17.6618 -18
    endloop
  endfacet
  facet normal 0 0 -1
    outer loop
      vertex -24 14.8333 -18
      vertex -40 22.8333 -18
      vertex -23.6955 16.3641 -18
    endloop
  endfacet
  facet normal 0 -1 0
    outer loop
      vertex -40 -22.8333 -18
      vertex 0 -22.8333 5
      vertex -40 -22.8333 5
    endloop
  endfacet
  facet normal 0 -1 -0
    outer loop
      vertex 0 -22.8333 5
      vertex -40 -22.8333 -18
      vertex 0 -22.8333 -18
    endloop
  endfacet
endsolid OpenSCAD_Model
